{
  "name": "kpi",
  "plural": "kpi",
  "base": "PersistedModel",
  "idInjection": true,
  "options": {
    "validateUpsert": true
  },
  "properties": {
    "salary": {
      "type": "number",
      "default": 0
    },
    "date_count": {
      "type": "number"
    },
    "daily_score": {
      "type": "number",
      "default": 9
    },
    "bonus": {
      "type": "number",
      "default": 0
    },
    "user_id": {
      "type": "number",
      "required": true
    },
    "custom": {
      "type": "object"
    },
    "created": {
      "type": "date",
      "defaultFn": "now"
    }
  },
  "validations": [],
  "relations": {},
  "acls": [],
  "methods": {}
}
